Task 6
…
## -- Conflicts ----------------------------------------------------------------------------------- tidyverse_conflicts() --
## x dplyr::filter() masks stats::filter()
## x dplyr::lag()    masks stats::lag()

gapminder2 <- gapminder %>%
  mutate(pop = pop/100000) %>%
  filter(country != "Kuwait")

Weighted_mean <- gapminder2 %>%
  group_by(continent, year) %>%
  summarise(wm = weighted.mean(gdpPercap, pop), pop=sum(pop))
Weighted_mean

## # A tibble: 60 x 4
## # Groups:   continent [5]
##    continent  year    wm   pop
##    <fct>     <int> <dbl> <dbl>
##  1 Africa     1952 1311. 2376.
##  2 Africa     1957 1445. 2648.
##  3 Africa     1962 1541. 2965.
##  4 Africa     1967 1775. 3353.
##  5 Africa     1972 2063. 3799.
##  6 Africa     1977 2245. 4331.
##  7 Africa     1982 2295. 4993.
##  8 Africa     1987 2181. 5748.
##  9 Africa     1992 2072. 6591.
## 10 Africa     1997 2099. 7438.
## # ... with 50 more rows
…
